10000 0.070369 23762 194657 196613
11000 0.103796 26111 216381 393241
12000 0.111101 28500 238236 393241
13000 0.117867 30864 260303 393241
14000 0.125178 33242 282317 393241
15000 0.134885 35616 305000 393241
16000 0.142119 37981 327407 393241
17000 0.149486 40373 349794 393241
18000 0.158857 42769 373125 393241
19000 0.222735 45144 396457 786433
20000 0.232076 47513 419071 786433
21000 0.240866 49899 442563 786433
22000 0.249336 52254 465412 786433
23000 0.255478 54647 489088 786433
24000 0.264181 57013 512660 786433
25000 0.267869 59387 536197 786433
26000 0.277900 61785 559761 786433
27000 0.287562 64164 583663 786433
28000 0.299041 66539 607318 786433
29000 0.307469 68911 631197 786433
30000 0.316088 71281 655080 786433
31000 0.326265 73658 679067 786433
32000 0.336837 76032 703240 786433
33000 0.348645 78420 727468 786433
34000 0.357129 80796 752103 786433
35000 0.368260 83169 775836 786433
36000 0.486981 85549 800659 1572869
37000 0.500610 87945 825016 1572869
38000 0.507967 90302 849092 1572869
39000 0.529385 92669 873672 1572869
40000 0.527678 95050 898063 1572869
41000 0.546767 97468 923819 1572869
42000 